A3: Pocket Money – Tanya_blogs
…
library(readr)
pm <- read_csv("../../data/Pocket_Money.csv")

Rows: 82 Columns: 4
── Column specification ────────────────────────────────────────────────────────
Delimiter: ","
chr (2): Name, Gender
dbl (2): Sr no, Money_spent

ℹ Use `spec()` to retrieve the full column specification for this data.
ℹ Specify the column types or set `show_col_types = FALSE` to quiet this message.

pm

# A tibble: 82 × 4
   `Sr no` Name     Gender Money_spent
     <dbl> <chr>    <chr>        <dbl>
 1       1 Aagam    Male           150
 2       2 Aakash   Male           240
 3       3 Aarushi  Female         382
 4       4 Abheeta  Female          60
 5       5 Adithya  Male            68
 6       6 Aditya   Male           300
 7       7 Akanksha Female         270
 8       8 Amruta   Female         190
 9       9 Anaaya   Female         300
10      10 Anish    Male             0
# ℹ 72 more rows
…
Observations :

As shown in the graph, many people didn’t spend money at all

Shapiro Test

pm %>% filter(Gender == "Male") %>% select(Money_spent) -> Male
pm %>% filter(Gender == "Female") %>% select(Money_spent) -> Female
Male 

# A tibble: 41 × 1
   Money_spent
         <dbl>
 1         150
 2         240
 3          68
 4         300
 5           0
 6         250
 7        1143
 8         100
 9       10000
10        1433
# ℹ 31 more rows

Female

# A tibble: 41 × 1
   Money_spent
         <dbl>
 1         382
 2          60
 3         270
 4         190
 5         300
 6          85
 7         700
 8         140
 9        1070
10        1200
# ℹ 31 more rows
…
