A3: Tips – Tanya_blogs
…
library(readr)
Tip <- read_csv("../../data/tip.csv")

Rows: 60 Columns: 4
── Column specification ────────────────────────────────────────────────────────
Delimiter: ","
chr (3): Name, Gender, Food preferance
dbl (1): Tip

ℹ Use `spec()` to retrieve the full column specification for this data.
ℹ Specify the column types or set `show_col_types = FALSE` to quiet this message.

Tip

# A tibble: 60 × 4
   Name     Gender `Food preferance`   Tip
   <chr>    <chr>  <chr>             <dbl>
 1 Aanya    Female Veg                   0
 2 Adit     Male   Veg                   0
 3 Aditi    Female Veg                  20
 4 Akash    Male   Non-veg               0
 5 Akshita  Female Non-veg               0
 6 Anandita Female Non-veg               0
 7 Ananya   Female Non-veg              20
 8 Ananya   Female Veg                  35
 9 Anhuya   Female Veg                  40
10 Ankit    Male   Non-veg               0
# ℹ 50 more rows
…
Observations:

While the mean tipping amounts for vegetarian and non-vegetarian individuals appear to differ, this visible difference alone is not enough to conclude that vegetarians tip more than non-vegetarians.

Mutating data and making Plots

I just created a another column called fp to replace food preference.

Tip<-Tip %>% 
  mutate(Fp= as.factor(`Food preferance`))
Tip

# A tibble: 60 × 5
   Name     Gender `Food preferance`   Tip Fp     
   <chr>    <chr>  <chr>             <dbl> <fct>  
 1 Aanya    Female Veg                   0 Veg    
 2 Adit     Male   Veg                   0 Veg    
 3 Aditi    Female Veg                  20 Veg    
 4 Akash    Male   Non-veg               0 Non-veg
 5 Akshita  Female Non-veg               0 Non-veg
 6 Anandita Female Non-veg               0 Non-veg
 7 Ananya   Female Non-veg              20 Non-veg
 8 Ananya   Female Veg                  35 Veg    
 9 Anhuya   Female Veg                  40 Veg    
10 Ankit    Male   Non-veg               0 Non-veg
# ℹ 50 more rows
…
Observation:

A p-value of 0.61 indicates that there is a 61% chance that the observed difference in tipping behavior between vegetarians and non-vegetarians could have occurred by random chance. Since this p-value is much higher than the typical significance level of 0.05, we fail to reject the null hypothesis. This suggests that there is no statistically significant difference in tipping behavior based on dietary preference in this sample.

Shapiro Test

The Shapiro-Wilk test is used to assess whether a dataset is normally distributed. In statistical analyses, many tests (like the T-test) assume that the data follows a normal distribution. By applying the Shapiro test, we can check if this assumption holds. If the data is normally distributed, we can confidently proceed with parametric tests like the T-test. If the data does not follow a normal distribution, we might consider using non-parametric tests, such as the Mann-Whitney U test (wilcox test) , to analyze differences between groups.

Tip %>% filter(Fp == "Veg") %>% select(Tip) -> Veg
Tip %>% filter(Fp == "Non-veg") %>% select(Tip) -> NonVeg
Veg

# A tibble: 30 × 1
     Tip
   <dbl>
 1     0
 2     0
 3    20
 4    35
 5    40
 6     0
 7     0
 8     0
 9    15
10   100
# ℹ 20 more rows

NonVeg

# A tibble: 30 × 1
     Tip
   <dbl>
 1     0
 2     0
 3     0
 4    20
 5     0
 6     0
 7     0
 8     0
 9     0
10    20
# ℹ 20 more rows
…
