A3: Grades – Tanya_blogs
…
null_dist_infer <- grades_modified %>%
  specify(Score ~ Degree) %>%
  hypothesise(null = "independence") %>%
  generate(reps = 4999, type = "permute") %>%
  calculate(stat = "F")
##
null_dist_infer

Response: Score (numeric)
Explanatory: Degree (factor)
Null Hypothesis: independence
# A tibble: 4,999 × 2
   replicate  stat
       <int> <dbl>
 1         1 0.111
 2         2 0.192
 3         3 2.73 
 4         4 1.77 
 5         5 0.808
 6         6 0.847
 7         7 0.135
 8         8 0.770
 9         9 0.760
10        10 0.444
# ℹ 4,989 more rows
…
